{
    "documenttype": [
      {"title": "Analytické a metodické materiály",
        "count": 1758,
      "children": [
        {"title": "Analýzy",
        "count": 430},
        {"title": "Metodiky",
        "count": 495},
        {"title": "Studie",
        "count": 830}
      ]},
      {"title": "Autorské práce",
        "count": 1375,
      "children": [
        {"title": "Monografie",
        "count": 51},
        {"title": "Preprinty",
        "count": 37},
        {"title": "Referáty",
        "count": 2},
        {"title": "Tématické sborníky",
        "count": 13}
      ]},
      {"title": "Firemní literatura",
      "count": 829},
      {"title": "Konferenční materiály",
      "count": 24797},
      {"title": "Propagační materiály",
      "count": 296},
      {"title": "Vysokoškolské práce",
      "count": 516101},
      {"title": "Zprávy",
      "count": 15190}
    ],
  "results": [
    {
     "title": "BOZPinfo.cz",
     "year": 2017,
    "lang": "cze",
    "origin": "Létáky",
    "originfull": "Výzkumný ústav bezpečnosti práce, v.v.i.",
    "originshort": "vúbp",
    "keywords": [
      "bezpečnost práce",
      "informační systémy",
      "portály"
    ],
    "content": "Oborový portál BOZPinfo.cz byl spuštěn v roce 2002 jako zdroj poznatků, informací a dokumentů z oblasti bezpečnosti a ochrany zdraví při práci (BOZP) pro podnikovou sféru, odbornou veřejnost ..."
    },
    {
      "title": "BOZPinfo.cz",
      "year": 2017,
      "lang": "cze",
      "origin": "Létáky",
      "originfull": "Výzkumný ústav bezpečnosti práce, v.v.i.",
      "originshort": "vúbp",
      "keywords": [
        "bezpečnost práce",
        "informační systémy",
        "portály"
      ],
      "content": "Oborový portál BOZPinfo.cz byl spuštěn v roce 2002 jako zdroj poznatků, informací a dokumentů z oblasti bezpečnosti a ochrany zdraví při práci (BOZP) pro podnikovou sféru, odbornou veřejnost ..."
    }
  ]
}
